{
  "project_info": {
    "project_number": "1017168103957",
    "firebase_url": "https://travelapp-b1fa4.firebaseio.com",
    "project_id": "travelapp-b1fa4",
    "storage_bucket": "travelapp-b1fa4.appspot.com"
  },
  "client": [
    {
      "client_info": {
        "mobilesdk_app_id": "1:1017168103957:android:bffd95795e3203ea",
        "android_client_info": {
          "package_name": "com.example.lenovo.travelapp"
        }
      },
      "oauth_client": [
        {
          "client_id": "1017168103957-stfjq6otgvtk9uvs1m04gr3npj7chvfp.apps.googleusercontent.com",
          "client_type": 1,
          "android_info": {
            "package_name": "com.example.lenovo.travelapp",
            "certificate_hash": "07040868c24e475baa84a5bf32824eaa7bc53ac0"
          }
        },
        {
          "client_id": "1017168103957-ir1t29opikhd4b42la1qe9pn1of66h3e.apps.googleusercontent.com",
          "client_type": 3
        }
      ],
      "api_key": [
        {
          "current_key": "AIzaSyBVJXZxC4A51gfi-eSyObb1AnQ5z5hZDRE"
        }
      ],
      "services": {
        "appinvite_service": {
          "other_platform_oauth_client": [
            {
              "client_id": "1017168103957-ir1t29opikhd4b42la1qe9pn1of66h3e.apps.googleusercontent.com",
              "client_type": 3
            }
          ]
        }
      }
    }
  ],
  "configuration_version": "1"
}